ITEM: TIMESTEP
0
ITEM: NUMBER OF ATOMS
105
ITEM: BOX BOUNDS pp pp pp
0.0000000000000000e+00 2.5000000000000000e+01
0.0000000000000000e+00 2.5000000000000000e+01
0.0000000000000000e+00 2.5000000000000000e+01
ITEM: ATOMS id type xs ys zs
32 3 0.199739 0.03565 0.0214796
101 1 0.742667 0.203888 0.209325
85 2 0.780739 0.204946 0.232003
88 4 0.870692 0.235063 0.160152
89 2 0.851282 0.17845 0.163127
90 4 0.814879 0.162054 0.20781
92 4 0.927669 0.239428 0.181562
97 3 0.959276 0.198408 0.178928
98 3 0.888838 0.106042 0.238384
104 1 0.827971 0.172018 0.125977
105 1 0.884746 0.149704 0.158264
86 4 0.798998 0.261976 0.229804
87 2 0.835605 0.276928 0.184784
96 3 0.945453 0.285275 0.198001
102 1 0.809046 0.290764 0.152103
103 1 0.85864 0.313651 0.194298
93 4 0.845983 0.132326 0.251082
99 3 0.826868 0.129722 0.29921
100 1 0.767544 0.193848 0.2729
8 4 0.686799 0.497272 0.448727
9 4 0.605391 0.495489 0.320875
12 3 0.672809 0.493562 0.498516
13 3 0.706672 0.456312 0.423906
14 3 0.636923 0.454972 0.313624
15 3 0.554376 0.490834 0.312858
91 4 0.822688 0.279083 0.283376
94 3 0.806887 0.25591 0.326988
95 3 0.854911 0.319658 0.285379
1 2 0.588299 0.585318 0.360031
2 4 0.590084 0.593082 0.41942
3 2 0.64345 0.586744 0.44592
4 4 0.684868 0.551486 0.420782
5 2 0.681873 0.544525 0.361342
6 4 0.629079 0.550271 0.333588
7 4 0.548143 0.55834 0.446949
10 3 0.505158 0.54484 0.421287
11 3 0.553591 0.546482 0.49713
16 1 0.547262 0.575405 0.346332
17 1 0.594417 0.625653 0.342692
18 1 0.661255 0.627336 0.446412
19 1 0.638983 0.577968 0.489196
20 1 0.707604 0.576414 0.344432
21 1 0.702933 0.507665 0.34839
51 4 0.195536 0.472685 0.655796
56 3 0.190283 0.431718 0.687153
57 3 0.182917 0.469143 0.60563
66 2 0.498736 0.376878 0.743302
71 4 0.399437 0.371668 0.741049
75 3 0.40349 0.33694 0.702758
82 1 0.493748 0.350386 0.708042
74 3 0.506096 0.266156 0.741194
81 1 0.526248 0.407986 0.727791
43 2 0.206003 0.57083 0.643449
44 4 0.163768 0.608342 0.663441
45 2 0.156811 0.612037 0.722842
47 2 0.21394 0.528519 0.73602
48 4 0.221762 0.523617 0.676814
49 4 0.110339 0.597103 0.636188
52 3 0.109634 0.576103 0.588786
53 3 0.0663088 0.61284 0.658601
58 1 0.198362 0.558958 0.601372
59 1 0.242724 0.59537 0.639682
60 1 0.183377 0.645079 0.735783
61 1 0.116632 0.627664 0.733394
22 2 0.13446 0.0343272 0.890156
23 4 0.171606 0.0581644 0.930685
24 2 0.229968 0.0582552 0.917109
28 4 0.162347 0.0332904 0.985634
31 3 0.115668 0.0141456 0.997593
37 1 0.0961488 0.0218956 0.908801
38 1 0.121774 0.0681572 0.864475
39 1 0.237298 0.0970112 0.896878
41 1 0.217397 0.018904 0.803902
25 4 0.251681 0.0165424 0.879972
40 1 0.25497 0.0618792 0.9536
55 3 0.126532 0.48431 0.788135
63 1 0.21173 0.488608 0.755318
67 4 0.447792 0.405667 0.756206
68 2 0.442135 0.426756 0.812006
69 4 0.47153 0.399937 0.856808
72 4 0.434056 0.363581 0.888396
76 3 0.353568 0.380926 0.763376
77 3 0.383378 0.374389 0.890252
78 3 0.453735 0.324958 0.916848
83 1 0.457976 0.468133 0.810629
84 1 0.399516 0.433402 0.822436
64 2 0.522007 0.370981 0.842521
65 4 0.528945 0.349301 0.787091
70 4 0.518345 0.289216 0.785991
73 3 0.526178 0.260995 0.828777
79 1 0.532278 0.340508 0.873112
80 1 0.554494 0.400692 0.847697
46 4 0.171638 0.56527 0.757244
50 4 0.121904 0.533797 0.773363
54 3 0.0761512 0.557984 0.77654
62 1 0.252256 0.54436 0.751692
26 2 0.213448 0.99349 0.840006
27 4 0.154838 0.992471 0.852429
30 4 0.137692 0.93683 0.870701
35 3 0.163858 0.895221 0.854193
36 3 0.0944408 0.931234 0.898746
42 1 0.227456 0.954045 0.825252
29 4 0.279388 0.972134 0.91134
33 3 0.30035 0.982632 0.957588
34 3 0.285755 0.925496 0.889594
ITEM: TIMESTEP
500
ITEM: NUMBER OF ATOMS
105
ITEM: BOX BOUNDS pp pp pp
0.0000000000000000e+00 2.5000000000000000e+01
0.0000000000000000e+00 2.5000000000000000e+01
0.0000000000000000e+00 2.5000000000000000e+01
ITEM: ATOMS id type xs ys zs
32 3 0.196054 0.047267 0.0253078
101 1 0.746962 0.208057 0.211334
85 2 0.782511 0.206953 0.23705
88 4 0.871679 0.235606 0.163458
89 2 0.854751 0.178471 0.168132
90 4 0.815796 0.164627 0.211307
92 4 0.930555 0.241932 0.181847
97 3 0.962936 0.203556 0.169534
98 3 0.878304 0.0961781 0.239033
104 1 0.830679 0.172841 0.131754
105 1 0.887972 0.150454 0.16594
86 4 0.802806 0.262998 0.233015
87 2 0.838611 0.27901 0.187709
96 3 0.948568 0.290346 0.183843
102 1 0.809991 0.288992 0.155905
103 1 0.861713 0.314913 0.196346
93 4 0.844117 0.131362 0.255208
99 3 0.816536 0.121887 0.297965
100 1 0.768808 0.195775 0.276806
8 4 0.68467 0.492134 0.456111
9 4 0.60508 0.490664 0.316614
12 3 0.683546 0.496501 0.507668
13 3 0.711955 0.453732 0.434859
14 3 0.638321 0.45966 0.291981
15 3 0.555403 0.490099 0.302177
91 4 0.828323 0.280817 0.286456
94 3 0.812558 0.257154 0.329638
95 3 0.844156 0.329935 0.288426
1 2 0.585475 0.577822 0.361739
2 4 0.588837 0.587566 0.420597
3 2 0.640805 0.581301 0.449328
4 4 0.681144 0.545119 0.424175
5 2 0.679711 0.534423 0.365448
6 4 0.628216 0.544439 0.336923
7 4 0.544562 0.556024 0.450171
10 3 0.497889 0.555468 0.427825
11 3 0.547612 0.554462 0.50178
16 1 0.545395 0.567409 0.348115
17 1 0.594773 0.617625 0.34547
18 1 0.659124 0.620788 0.44314
19 1 0.636354 0.575383 0.492306
20 1 0.705387 0.566445 0.349673
21 1 0.698191 0.496643 0.354302
51 4 0.185192 0.469569 0.646862
56 3 0.175222 0.427144 0.674493
57 3 0.192457 0.465935 0.595782
66 2 0.493996 0.370596 0.743206
71 4 0.394874 0.388139 0.741649
75 3 0.390832 0.346262 0.711761
82 1 0.4847 0.345632 0.708771
74 3 0.521873 0.261168 0.734648
81 1 0.523711 0.399454 0.728901
43 2 0.206229 0.566519 0.643655
44 4 0.165892 0.604672 0.665667
45 2 0.156421 0.606627 0.724752
47 2 0.204787 0.515171 0.73363
48 4 0.214816 0.516072 0.674792
49 4 0.112091 0.59705 0.636032
52 3 0.115303 0.58597 0.585646
53 3 0.0718057 0.623656 0.654459
58 1 0.200875 0.559895 0.601038
59 1 0.244122 0.588141 0.648896
60 1 0.18697 0.635009 0.738377
61 1 0.117974 0.623824 0.735139
22 2 0.134659 0.029778 0.892746
23 4 0.172965 0.0540046 0.93164
24 2 0.231629 0.0543465 0.920252
28 4 0.16251 0.0325894 0.988785
31 3 0.113026 0.0247636 0.0017821
37 1 0.0967805 0.0180728 0.910891
38 1 0.126449 0.0638726 0.866221
39 1 0.235687 0.0908697 0.896307
41 1 0.218657 0.0146747 0.808157
25 4 0.251907 0.0130602 0.882229
40 1 0.256223 0.0596881 0.955751
55 3 0.121908 0.486002 0.800858
63 1 0.195759 0.476051 0.749306
67 4 0.450641 0.407399 0.760504
68 2 0.4474 0.42731 0.816901
69 4 0.474812 0.394186 0.858444
72 4 0.433993 0.359749 0.889747
76 3 0.359053 0.425174 0.738097
77 3 0.387989 0.381323 0.899363
78 3 0.453367 0.326762 0.924697
83 1 0.473119 0.463181 0.815475
84 1 0.40628 0.438955 0.827208
64 2 0.521827 0.360621 0.843056
65 4 0.525105 0.342914 0.786214
70 4 0.518945 0.281482 0.782197
73 3 0.536562 0.253546 0.822011
79 1 0.532285 0.329003 0.871291
80 1 0.554121 0.390383 0.843943
46 4 0.169125 0.557466 0.756197
50 4 0.116856 0.531416 0.77675
54 3 0.0791003 0.563668 0.791205
62 1 0.243928 0.525795 0.750522
26 2 0.215061 0.987604 0.842651
27 4 0.156498 0.989716 0.854351
30 4 0.135923 0.932965 0.868255
35 3 0.151823 0.894756 0.837288
36 3 0.0889787 0.929411 0.889753
42 1 0.228515 0.94822 0.829693
29 4 0.284257 0.969981 0.912905
33 3 0.313882 0.986994 0.95177
34 3 0.299967 0.929068 0.885474
ITEM: TIMESTEP
1000
ITEM: NUMBER OF ATOMS
105
ITEM: BOX BOUNDS pp pp pp
0.0000000000000000e+00 2.5000000000000000e+01
0.0000000000000000e+00 2.5000000000000000e+01
0.0000000000000000e+00 2.5000000000000000e+01
ITEM: ATOMS id type xs ys zs
32 3 0.19611 0.051181 0.0258857
31 3 0.114895 0.0287462 0.00306465
101 1 0.740596 0.210559 0.24083
85 2 0.784913 0.212916 0.243789
88 4 0.870649 0.237829 0.164548
89 2 0.854719 0.180384 0.174706
90 4 0.813227 0.168518 0.215824
92 4 0.930031 0.247166 0.172848
97 3 0.965235 0.209104 0.168983
98 3 0.86817 0.0918379 0.244673
104 1 0.845038 0.160258 0.136189
105 1 0.891551 0.163201 0.192097
86 4 0.804035 0.269704 0.23696
87 2 0.840374 0.282154 0.190782
96 3 0.947732 0.296342 0.17197
102 1 0.822373 0.310386 0.161505
103 1 0.870967 0.306371 0.211522
93 4 0.831556 0.127159 0.256099
99 3 0.802878 0.119217 0.298998
100 1 0.791806 0.205272 0.286831
8 4 0.684475 0.488683 0.470525
9 4 0.608279 0.489822 0.304037
13 3 0.698262 0.440214 0.456587
14 3 0.640511 0.47262 0.267321
15 3 0.557929 0.47889 0.299749
21 1 0.665372 0.470599 0.37996
91 4 0.831101 0.288276 0.288039
94 3 0.844291 0.254934 0.325035
95 3 0.834669 0.338417 0.298956
10 3 0.491685 0.563292 0.436453
1 2 0.584003 0.567068 0.36487
2 4 0.586278 0.584453 0.422116
3 2 0.637833 0.573383 0.450565
4 4 0.678934 0.534269 0.43102
5 2 0.673431 0.514075 0.374597
6 4 0.627962 0.53365 0.340614
7 4 0.540306 0.560603 0.454489
16 1 0.54696 0.541904 0.362532
17 1 0.579483 0.605073 0.340035
18 1 0.65786 0.610968 0.460926
19 1 0.623794 0.554482 0.48833
20 1 0.713189 0.520206 0.353325
51 4 0.170638 0.463125 0.631125
56 3 0.124235 0.442589 0.643383
57 3 0.190416 0.452509 0.584394
47 2 0.186944 0.490881 0.725948
48 4 0.204011 0.497294 0.669043
63 1 0.15287 0.464134 0.724497
66 2 0.471268 0.358863 0.747621
71 4 0.40238 0.431273 0.743588
81 1 0.479781 0.359928 0.703126
76 3 0.403332 0.468193 0.707804
74 3 0.539929 0.259211 0.721383
43 2 0.208315 0.552685 0.645819
44 4 0.17936 0.598589 0.671334
45 2 0.165044 0.592629 0.729732
49 4 0.12886 0.607359 0.638804
52 3 0.127605 0.592129 0.589016
53 3 0.0876236 0.632449 0.658076
58 1 0.192147 0.549961 0.604767
59 1 0.249497 0.562658 0.634522
61 1 0.122408 0.602478 0.729812
12 3 0.687703 0.501576 0.52089
11 3 0.546511 0.549832 0.505096
22 2 0.138309 0.0257272 0.892449
23 4 0.174713 0.0539722 0.930421
24 2 0.233428 0.0500683 0.919585
28 4 0.162794 0.0396403 0.988681
37 1 0.111258 0.00362871 0.919207
38 1 0.11557 0.0583482 0.870506
40 1 0.249102 0.0376788 0.958549
39 1 0.250067 0.0906615 0.909524
25 4 0.256005 0.00995145 0.881603
73 3 0.53712 0.244454 0.809314
55 3 0.106841 0.481991 0.807476
62 1 0.21958 0.470986 0.750303
75 3 0.357057 0.412969 0.760284
82 1 0.435647 0.333104 0.751597
67 4 0.455514 0.413146 0.76625
68 2 0.464431 0.427359 0.824159
69 4 0.485525 0.387613 0.863195
72 4 0.43917 0.360387 0.892163
77 3 0.393904 0.385167 0.898017
78 3 0.449096 0.321198 0.924601
83 1 0.492684 0.46257 0.826101
84 1 0.422932 0.435955 0.83927
64 2 0.519453 0.345833 0.836647
65 4 0.516234 0.33352 0.777576
70 4 0.524246 0.273473 0.768311
79 1 0.503271 0.309021 0.854037
80 1 0.562557 0.351943 0.846937
60 1 0.18367 0.62455 0.755326
46 4 0.16663 0.539086 0.755562
50 4 0.115827 0.52804 0.786447
54 3 0.0863795 0.56743 0.80166
41 1 0.228654 0.988879 0.803185
26 2 0.217855 0.979525 0.845697
27 4 0.159109 0.986242 0.852613
30 4 0.131378 0.932194 0.856159
35 3 0.136458 0.898383 0.816914
36 3 0.0904228 0.9252 0.887609
42 1 0.225865 0.936891 0.855294
29 4 0.295851 0.973466 0.909297
33 3 0.324396 0.992742 0.94849
34 3 0.313602 0.930372 0.885867
ITEM: TIMESTEP
1500
ITEM: NUMBER OF ATOMS
105
ITEM: BOX BOUNDS pp pp pp
0.0000000000000000e+00 2.5000000000000000e+01
0.0000000000000000e+00 2.5000000000000000e+01
0.0000000000000000e+00 2.5000000000000000e+01
ITEM: ATOMS id type xs ys zs
32 3 0.206165 0.0403343 0.0165047
31 3 0.119467 0.023092 0.995797
101 1 0.746443 0.225108 0.230841
85 2 0.787043 0.221899 0.250111
88 4 0.870455 0.239102 0.16693
89 2 0.860623 0.185057 0.191297
90 4 0.811381 0.174128 0.223305
92 4 0.92877 0.256008 0.164484
97 3 0.96444 0.219339 0.169461
98 3 0.852225 0.0914654 0.254573
104 1 0.863527 0.155643 0.159645
105 1 0.893136 0.179777 0.220446
86 4 0.80879 0.276612 0.242108
87 2 0.83671 0.282306 0.189712
96 3 0.940771 0.306638 0.162194
102 1 0.802259 0.279846 0.161636
103 1 0.856501 0.321273 0.189065
93 4 0.815071 0.126121 0.261092
99 3 0.781135 0.12311 0.300466
100 1 0.777606 0.214197 0.29136
8 4 0.675764 0.483119 0.485902
9 4 0.611352 0.485796 0.299728
13 3 0.661895 0.43467 0.478236
14 3 0.63899 0.487917 0.255645
15 3 0.57072 0.453686 0.304006
21 1 0.63065 0.463465 0.40107
91 4 0.844226 0.2922 0.289203
94 3 0.887319 0.264587 0.297725
95 3 0.82762 0.328861 0.322496
10 3 0.492039 0.571994 0.447742
1 2 0.586296 0.559865 0.365979
2 4 0.588596 0.578142 0.422583
3 2 0.639559 0.570698 0.452553
4 4 0.67218 0.522237 0.43835
5 2 0.658181 0.494847 0.387212
6 4 0.629166 0.523644 0.343967
7 4 0.541167 0.558429 0.45692
16 1 0.545795 0.544084 0.358379
17 1 0.593277 0.597253 0.341421
18 1 0.666165 0.603949 0.439062
19 1 0.636036 0.57423 0.496312
20 1 0.6969 0.478315 0.371403
51 4 0.144856 0.463923 0.615788
56 3 0.101741 0.492003 0.615408
57 3 0.153248 0.422876 0.584184
47 2 0.161462 0.469951 0.713704
48 4 0.18561 0.475329 0.659518
63 1 0.121507 0.45315 0.710544
66 2 0.488015 0.382694 0.748819
71 4 0.42826 0.462766 0.756084
81 1 0.501492 0.391682 0.707641
76 3 0.406938 0.442223 0.713011
74 3 0.511547 0.275002 0.698654
43 2 0.214074 0.528185 0.648934
44 4 0.19655 0.578445 0.676695
45 2 0.177572 0.569331 0.732293
49 4 0.153549 0.608608 0.645298
52 3 0.143495 0.599653 0.595
53 3 0.123887 0.641151 0.672248
58 1 0.226164 0.53211 0.607942
59 1 0.254462 0.521054 0.664174
61 1 0.144364 0.597442 0.740619
12 3 0.687285 0.501971 0.533188
11 3 0.552009 0.527921 0.496848
22 2 0.141461 0.0253124 0.888261
23 4 0.178723 0.0536454 0.925079
24 2 0.237285 0.050926 0.914504
28 4 0.165645 0.0439509 0.984485
37 1 0.108492 0.00891067 0.911873
38 1 0.128331 0.059002 0.861884
40 1 0.257137 0.053512 0.953551
39 1 0.244422 0.0881461 0.889215
25 4 0.258958 0.00673404 0.880051
73 3 0.49398 0.24614 0.783133
55 3 0.0889664 0.472795 0.798465
62 1 0.188384 0.438322 0.731697
75 3 0.400293 0.493899 0.786991
82 1 0.449801 0.36704 0.736913
67 4 0.477944 0.435553 0.778411
68 2 0.473898 0.430011 0.836702
69 4 0.490369 0.380134 0.865201
72 4 0.442047 0.361357 0.896
77 3 0.397236 0.386877 0.889696
78 3 0.444532 0.314178 0.919482
83 1 0.50278 0.458352 0.855728
84 1 0.439012 0.4516 0.855386
64 2 0.510438 0.332778 0.833198
65 4 0.519265 0.338617 0.773803
70 4 0.505818 0.284003 0.749295
79 1 0.480075 0.300267 0.838422
80 1 0.550786 0.321213 0.849897
60 1 0.209866 0.584578 0.760682
46 4 0.163523 0.515409 0.753181
50 4 0.114553 0.517158 0.79005
54 3 0.0953181 0.562928 0.803311
41 1 0.236825 0.962217 0.813734
26 2 0.22044 0.969651 0.854384
27 4 0.162758 0.983947 0.848446
30 4 0.128383 0.934708 0.84698
35 3 0.12158 0.909621 0.80209
36 3 0.103429 0.921599 0.89085
42 1 0.223944 0.929464 0.873289
29 4 0.30706 0.978663 0.906028
33 3 0.325333 0.00236193 0.948778
34 3 0.319951 0.931196 0.891643
ITEM: TIMESTEP
2000
ITEM: NUMBER OF ATOMS
105
ITEM: BOX BOUNDS pp pp pp
0.0000000000000000e+00 2.5000000000000000e+01
0.0000000000000000e+00 2.5000000000000000e+01
0.0000000000000000e+00 2.5000000000000000e+01
ITEM: ATOMS id type xs ys zs
32 3 0.214704 0.0181176 0.000942589
88 4 0.863887 0.241988 0.165986
89 2 0.855902 0.190644 0.19621
90 4 0.804671 0.1841 0.228762
97 3 0.95896 0.221058 0.177399
104 1 0.853117 0.160977 0.164922
105 1 0.890491 0.187112 0.221839
92 4 0.922873 0.255559 0.160608
86 4 0.813765 0.283388 0.247649
87 2 0.835335 0.288303 0.191343
96 3 0.938427 0.304706 0.153815
102 1 0.798798 0.293067 0.165061
103 1 0.853828 0.326447 0.181033
101 1 0.742014 0.23591 0.252433
85 2 0.786247 0.231621 0.261061
98 3 0.847933 0.103686 0.261675
93 4 0.805678 0.134284 0.262665
99 3 0.7716 0.125176 0.30065
100 1 0.780816 0.222707 0.303106
8 4 0.659339 0.479079 0.49567
9 4 0.614998 0.476241 0.311341
13 3 0.62989 0.43774 0.483593
14 3 0.615627 0.486532 0.260149
15 3 0.595357 0.431954 0.32994
21 1 0.630416 0.455327 0.414768
5 2 0.659077 0.486728 0.399592
20 1 0.697712 0.467591 0.38614
91 4 0.853914 0.296215 0.291418
94 3 0.903519 0.304737 0.277835
95 3 0.836094 0.295874 0.33977
10 3 0.498763 0.581611 0.460017
1 2 0.594826 0.557278 0.3646
2 4 0.59019 0.572216 0.421812
3 2 0.640665 0.566345 0.457239
4 4 0.672628 0.516146 0.450287
6 4 0.635197 0.51646 0.351806
7 4 0.540307 0.552113 0.450052
16 1 0.55596 0.555246 0.343368
17 1 0.617595 0.593214 0.348908
18 1 0.665787 0.598925 0.44021
19 1 0.638907 0.581558 0.498103
11 3 0.54313 0.504013 0.469378
51 4 0.117136 0.461778 0.61183
57 3 0.0895234 0.420794 0.599144
47 2 0.150821 0.450718 0.706194
48 4 0.165438 0.459802 0.649203
63 1 0.112241 0.431491 0.707286
59 1 0.24202 0.488298 0.634169
62 1 0.180149 0.418242 0.716784
46 4 0.160407 0.493359 0.747891
74 3 0.4685 0.321079 0.677175
70 4 0.469997 0.319856 0.729305
12 3 0.677763 0.483365 0.544687
82 1 0.513467 0.415249 0.714155
56 3 0.105797 0.509388 0.594282
43 2 0.201667 0.50606 0.637604
44 4 0.208991 0.551063 0.677532
45 2 0.195268 0.54049 0.73455
49 4 0.187778 0.604379 0.658646
52 3 0.186448 0.613692 0.608354
53 3 0.166788 0.638203 0.693877
58 1 0.196538 0.522694 0.59818
60 1 0.236178 0.525112 0.747531
75 3 0.449125 0.506936 0.742312
31 3 0.12751 0.0168143 0.983408
22 2 0.145267 0.0314283 0.876797
23 4 0.182859 0.0578813 0.916222
24 2 0.240881 0.0606767 0.899169
28 4 0.17445 0.0322134 0.97025
37 1 0.108889 0.0171968 0.897544
38 1 0.135785 0.0627195 0.846196
39 1 0.235449 0.0845847 0.860794
40 1 0.270443 0.0820338 0.924157
25 4 0.264268 0.011179 0.877508
33 3 0.335843 0.00531599 0.950116
55 3 0.0694197 0.472784 0.775667
71 4 0.451812 0.467506 0.776587
76 3 0.409436 0.438801 0.782409
73 3 0.431819 0.292606 0.751491
69 4 0.491169 0.370867 0.862959
72 4 0.440101 0.358965 0.896513
77 3 0.398813 0.387055 0.884035
78 3 0.432274 0.313144 0.918951
84 1 0.482281 0.461859 0.874548
64 2 0.499411 0.329733 0.822406
79 1 0.458827 0.310612 0.818476
66 2 0.524205 0.400816 0.753381
81 1 0.568615 0.403998 0.750111
67 4 0.506276 0.444158 0.792042
68 2 0.503586 0.42964 0.848809
83 1 0.542762 0.436864 0.865577
65 4 0.513211 0.343315 0.764223
80 1 0.529507 0.300268 0.835861
61 1 0.19273 0.577457 0.758402
50 4 0.10975 0.505222 0.779174
54 3 0.102005 0.550821 0.802868
41 1 0.243328 0.943636 0.828552
26 2 0.224021 0.969819 0.859911
27 4 0.167261 0.987228 0.844387
30 4 0.129421 0.939553 0.846919
35 3 0.100002 0.925732 0.805535
36 3 0.128929 0.907462 0.887356
42 1 0.222526 0.942964 0.89442
29 4 0.307038 0.98381 0.91286
34 3 0.313969 0.932849 0.905801
ITEM: TIMESTEP
2500
ITEM: NUMBER OF ATOMS
105
ITEM: BOX BOUNDS pp pp pp
0.0000000000000000e+00 2.5000000000000000e+01
0.0000000000000000e+00 2.5000000000000000e+01
0.0000000000000000e+00 2.5000000000000000e+01
ITEM: ATOMS id type xs ys zs
32 3 0.209328 0.00307527 0.985529
88 4 0.854417 0.250238 0.165827
89 2 0.83257 0.198185 0.184447
90 4 0.794584 0.194255 0.229543
97 3 0.942481 0.213406 0.190664
104 1 0.810856 0.18076 0.149581
105 1 0.865153 0.168457 0.182227
92 4 0.915378 0.245901 0.1611
86 4 0.815426 0.293366 0.254827
87 2 0.841139 0.297459 0.20084
96 3 0.940303 0.282716 0.135964
102 1 0.818537 0.329952 0.177717
103 1 0.877124 0.324209 0.205318
101 1 0.739987 0.255651 0.250532
85 2 0.782291 0.24441 0.262177
98 3 0.858452 0.126868 0.262012
93 4 0.80948 0.144806 0.262125
99 3 0.779829 0.126524 0.299958
100 1 0.775787 0.237445 0.305513
8 4 0.657209 0.463296 0.505862
9 4 0.61754 0.460648 0.328317
13 3 0.629111 0.421411 0.491502
14 3 0.583189 0.473272 0.291375
15 3 0.626905 0.411236 0.341004
21 1 0.65332 0.442091 0.413945
5 2 0.668556 0.483318 0.40971
20 1 0.711715 0.483028 0.398876
91 4 0.856187 0.303862 0.298955
94 3 0.891726 0.341937 0.293765
95 3 0.854626 0.278889 0.344443
10 3 0.503143 0.590212 0.464852
1 2 0.609524 0.555208 0.37037
2 4 0.593019 0.570864 0.425397
3 2 0.627078 0.551841 0.470132
4 4 0.666707 0.507228 0.464556
6 4 0.642686 0.50586 0.361924
7 4 0.533542 0.557609 0.437375
16 1 0.573174 0.549502 0.344198
17 1 0.634909 0.589279 0.355371
18 1 0.645699 0.588364 0.488523
19 1 0.602588 0.545813 0.505176
11 3 0.51547 0.51078 0.424822
51 4 0.0942926 0.474732 0.621933
57 3 0.0498557 0.45114 0.635261
47 2 0.147697 0.429167 0.691519
48 4 0.149327 0.452997 0.636525
63 1 0.11105 0.405424 0.697182
59 1 0.217835 0.486937 0.596398
62 1 0.17727 0.39613 0.691702
46 4 0.159282 0.463955 0.73867
74 3 0.439062 0.384721 0.66902
70 4 0.439142 0.366074 0.718083
12 3 0.662604 0.471913 0.556168
82 1 0.539512 0.413519 0.715616
56 3 0.0907733 0.513308 0.587724
43 2 0.191218 0.495891 0.63154
44 4 0.218997 0.519984 0.67795
45 2 0.208352 0.497663 0.732575
49 4 0.218616 0.581798 0.676937
52 3 0.231307 0.607826 0.63444
53 3 0.201254 0.608229 0.717312
58 1 0.175262 0.530558 0.610109
60 1 0.24531 0.472765 0.742063
75 3 0.457283 0.475279 0.730675
31 3 0.122258 0.023789 0.979233
22 2 0.157151 0.0375512 0.864687
23 4 0.185305 0.0612898 0.911929
24 2 0.244554 0.0588767 0.905291
28 4 0.171407 0.0305513 0.96316
37 1 0.114034 0.0302466 0.873461
38 1 0.162961 0.0670157 0.831589
39 1 0.258283 0.100185 0.892488
40 1 0.265753 0.0563787 0.945627
25 4 0.270583 0.0142971 0.874444
33 3 0.349822 0.00422993 0.933961
55 3 0.0643289 0.487143 0.736974
71 4 0.478179 0.473295 0.777849
76 3 0.457199 0.500345 0.816233
73 3 0.393934 0.364717 0.742825
69 4 0.486063 0.356122 0.852702
72 4 0.438493 0.352584 0.890961
77 3 0.404224 0.391879 0.890985
78 3 0.42891 0.308662 0.916196
84 1 0.49317 0.440998 0.876372
64 2 0.474159 0.327493 0.80152
79 1 0.429133 0.33186 0.799003
66 2 0.530739 0.392288 0.752797
81 1 0.565028 0.371323 0.770264
67 4 0.522656 0.433499 0.794815
68 2 0.513616 0.410417 0.849064
83 1 0.550623 0.409728 0.872327
65 4 0.489237 0.348756 0.747807
80 1 0.484812 0.286698 0.81031
61 1 0.214816 0.527636 0.763806
50 4 0.111887 0.49972 0.752654
54 3 0.114541 0.541803 0.783064
41 1 0.252454 0.953675 0.813467
26 2 0.233053 0.975519 0.849043
27 4 0.176402 0.987414 0.837715
30 4 0.138998 0.939054 0.848627
35 3 0.0916286 0.937098 0.829036
36 3 0.15546 0.896987 0.874152
42 1 0.233202 0.939114 0.874618
29 4 0.310317 0.983731 0.908798
34 3 0.303706 0.932753 0.91251
ITEM: TIMESTEP
3000
ITEM: NUMBER OF ATOMS
105
ITEM: BOX BOUNDS pp pp pp
0.0000000000000000e+00 2.5000000000000000e+01
0.0000000000000000e+00 2.5000000000000000e+01
0.0000000000000000e+00 2.5000000000000000e+01
ITEM: ATOMS id type xs ys zs
89 2 0.812082 0.214026 0.180413
90 4 0.784186 0.205582 0.233335
97 3 0.929669 0.214054 0.205893
104 1 0.780554 0.216561 0.149274
105 1 0.827923 0.175383 0.164633
92 4 0.907282 0.237289 0.165826
96 3 0.933327 0.249173 0.122338
88 4 0.849649 0.258867 0.169927
87 2 0.846656 0.3056 0.206217
102 1 0.824722 0.340055 0.185343
103 1 0.885213 0.330569 0.210152
98 3 0.867028 0.15674 0.255605
93 4 0.817699 0.167173 0.266884
99 3 0.792148 0.136607 0.299967
100 1 0.776553 0.245992 0.30684
101 1 0.736095 0.271361 0.252963
9 4 0.622193 0.448997 0.348588
13 3 0.625678 0.407986 0.49338
14 3 0.571084 0.443867 0.349328
15 3 0.648919 0.404391 0.341364
21 1 0.679081 0.433369 0.422719
5 2 0.678803 0.47833 0.423868
20 1 0.719326 0.495521 0.422582
4 4 0.658866 0.49839 0.476443
6 4 0.650266 0.49632 0.37399
86 4 0.815516 0.303092 0.258269
85 2 0.778269 0.256954 0.262852
91 4 0.853126 0.309552 0.305518
94 3 0.869472 0.355013 0.324162
95 3 0.873008 0.264436 0.322579
10 3 0.502896 0.579768 0.463113
1 2 0.616781 0.54652 0.376283
2 4 0.593746 0.564122 0.427842
3 2 0.613571 0.536828 0.477473
7 4 0.533449 0.556834 0.427239
16 1 0.581842 0.539389 0.348622
17 1 0.641282 0.580357 0.359607
11 3 0.513075 0.535447 0.385409
51 4 0.0865981 0.486686 0.610378
57 3 0.0400837 0.462638 0.616111
47 2 0.123303 0.430344 0.680626
48 4 0.136479 0.455539 0.628271
63 1 0.081397 0.438154 0.692448
59 1 0.206036 0.485648 0.590435
62 1 0.126035 0.387245 0.678719
46 4 0.150988 0.446264 0.731936
43 2 0.183692 0.492338 0.627935
44 4 0.22212 0.491261 0.6751
45 2 0.208436 0.461349 0.725217
60 1 0.235335 0.424475 0.727027
74 3 0.408289 0.400365 0.655935
70 4 0.406283 0.393015 0.707183
82 1 0.494412 0.438697 0.703258
73 3 0.364438 0.40863 0.733604
66 2 0.498361 0.412038 0.736312
65 4 0.455516 0.370343 0.735585
8 4 0.644566 0.45178 0.513415
12 3 0.638389 0.461977 0.564114
81 1 0.527592 0.381338 0.727485
56 3 0.0919936 0.527148 0.580096
49 4 0.240639 0.548241 0.686926
53 3 0.233946 0.567817 0.733575
58 1 0.171305 0.534861 0.622228
55 3 0.0776466 0.513082 0.739322
52 3 0.255985 0.577616 0.645362
18 1 0.624792 0.572149 0.503665
19 1 0.580071 0.526868 0.503125
31 3 0.117727 0.0474865 0.977781
22 2 0.166829 0.0382039 0.859972
23 4 0.189167 0.056258 0.912328
24 2 0.248544 0.050652 0.911437
28 4 0.165441 0.0328261 0.963001
37 1 0.122729 0.0411714 0.863378
38 1 0.173426 0.0704329 0.830121
39 1 0.265498 0.0914611 0.908717
40 1 0.263737 0.0413707 0.953665
25 4 0.27634 0.0161359 0.87075
33 3 0.363177 0.000967597 0.908352
61 1 0.223776 0.480701 0.761491
50 4 0.121029 0.492293 0.759299
69 4 0.467731 0.354814 0.836617
72 4 0.427637 0.343441 0.882238
77 3 0.402109 0.384092 0.90184
78 3 0.428768 0.298157 0.907852
84 1 0.46939 0.435428 0.857143
64 2 0.440977 0.339589 0.785824
79 1 0.397367 0.341799 0.793171
68 2 0.499345 0.405289 0.838255
80 1 0.454838 0.299569 0.776253
71 4 0.518505 0.49114 0.789296
67 4 0.521671 0.431755 0.787541
83 1 0.529619 0.405647 0.870849
54 3 0.14576 0.516811 0.797254
75 3 0.470796 0.507953 0.797084
76 3 0.559441 0.524079 0.794374
32 3 0.18802 0.99229 0.986368
26 2 0.242147 0.978957 0.836934
27 4 0.183268 0.987788 0.832318
30 4 0.151036 0.938349 0.850028
35 3 0.0998992 0.942331 0.850294
36 3 0.175786 0.892815 0.847171
41 1 0.262581 0.976765 0.795876
42 1 0.2527 0.936603 0.844113
29 4 0.316518 0.980551 0.899812
34 3 0.301943 0.933302 0.915968
ITEM: TIMESTEP
3500
ITEM: NUMBER OF ATOMS
105
ITEM: BOX BOUNDS pp pp pp
0.0000000000000000e+00 2.5000000000000000e+01
0.0000000000000000e+00 2.5000000000000000e+01
0.0000000000000000e+00 2.5000000000000000e+01
ITEM: ATOMS id type xs ys zs
89 2 0.809316 0.224363 0.184603
90 4 0.783348 0.218334 0.238714
97 3 0.945266 0.25535 0.196816
104 1 0.776381 0.232165 0.153769
105 1 0.826214 0.185359 0.170617
92 4 0.906002 0.247746 0.164138
96 3 0.9105 0.21641 0.122898
88 4 0.849787 0.267756 0.175951
87 2 0.845698 0.316338 0.210386
102 1 0.830598 0.350986 0.185673
103 1 0.88543 0.338969 0.213716
98 3 0.852827 0.15425 0.256761
93 4 0.807282 0.173411 0.272253
99 3 0.779398 0.15309 0.311284
100 1 0.77224 0.255762 0.315036
101 1 0.731729 0.279457 0.259398
9 4 0.633363 0.42617 0.375179
13 3 0.624972 0.398588 0.49177
14 3 0.594626 0.404757 0.401892
15 3 0.653851 0.399125 0.336632
21 1 0.70692 0.44137 0.452372
5 2 0.684524 0.480119 0.443558
20 1 0.715479 0.511523 0.445672
4 4 0.650284 0.493591 0.491414
6 4 0.656034 0.480935 0.39159
86 4 0.813041 0.313161 0.261661
85 2 0.774307 0.267996 0.270899
91 4 0.852757 0.308153 0.306957
94 3 0.846292 0.341242 0.34611
95 3 0.896341 0.280631 0.302447
10 3 0.50002 0.553368 0.452574
1 2 0.616511 0.525585 0.380822
2 4 0.59356 0.555328 0.427542
3 2 0.605746 0.532425 0.481603
7 4 0.533821 0.55977 0.414649
16 1 0.581189 0.511831 0.356424
17 1 0.639651 0.557298 0.359165
11 3 0.519821 0.575554 0.367541
51 4 0.0906922 0.492806 0.590639
57 3 0.0461051 0.46823 0.578449
47 2 0.106017 0.46178 0.681353
48 4 0.129317 0.46113 0.62568
63 1 0.086174 0.500192 0.692169
59 1 0.203022 0.470695 0.586187
62 1 0.0750912 0.431864 0.680873
46 4 0.141205 0.446952 0.727782
43 2 0.18448 0.483702 0.623773
44 4 0.223117 0.46736 0.667607
45 2 0.200297 0.43947 0.715466
60 1 0.206236 0.395931 0.707122
74 3 0.364573 0.418867 0.656775
70 4 0.373261 0.42333 0.708131
82 1 0.434818 0.482781 0.773051
73 3 0.333666 0.442285 0.73677
66 2 0.462914 0.456404 0.749486
65 4 0.427958 0.409898 0.731277
8 4 0.624221 0.444328 0.515412
12 3 0.607941 0.447485 0.564435
81 1 0.477658 0.481645 0.715258
56 3 0.0998584 0.539781 0.573442
49 4 0.254717 0.515953 0.685045
53 3 0.271473 0.527719 0.733467
58 1 0.177256 0.527642 0.626745
55 3 0.113149 0.528355 0.777354
52 3 0.273916 0.544802 0.646555
18 1 0.61358 0.56671 0.509635
19 1 0.569251 0.515174 0.49545
31 3 0.131558 0.069824 0.979691
22 2 0.158109 0.0339808 0.861744
23 4 0.192084 0.0527116 0.906888
24 2 0.250395 0.0380692 0.915371
28 4 0.162761 0.0354124 0.957533
37 1 0.114859 0.0225965 0.870467
38 1 0.147755 0.0675141 0.836778
39 1 0.272344 0.0748387 0.927289
40 1 0.254565 0.0107432 0.953212
25 4 0.282214 0.0191075 0.86921
33 3 0.372261 0.984727 0.891788
61 1 0.222031 0.451415 0.751731
50 4 0.137252 0.482574 0.775992
69 4 0.454157 0.365793 0.822598
72 4 0.419517 0.344991 0.869
77 3 0.388604 0.376493 0.895166
78 3 0.421493 0.294067 0.880205
84 1 0.467041 0.444274 0.853736
64 2 0.428639 0.36386 0.768415
79 1 0.388007 0.346066 0.774337
68 2 0.492157 0.412162 0.829987
80 1 0.447693 0.328261 0.748766
71 4 0.549069 0.486355 0.795309
67 4 0.511555 0.439487 0.780883
83 1 0.52163 0.402175 0.86287
54 3 0.15301 0.463013 0.821583
75 3 0.551469 0.505093 0.84334
76 3 0.575018 0.506483 0.754956
32 3 0.169084 0.987644 0.976394
26 2 0.247945 0.992152 0.827951
27 4 0.187924 0.993794 0.827156
30 4 0.165672 0.938727 0.840665
35 3 0.123003 0.936764 0.871499
36 3 0.188673 0.895633 0.824048
41 1 0.263255 0.00414994 0.785383
42 1 0.26421 0.951235 0.819128
29 4 0.320481 0.97848 0.894472
34 3 0.301098 0.938353 0.920295
ITEM: TIMESTEP
4000
ITEM: NUMBER OF ATOMS
105
ITEM: BOX BOUNDS pp pp pp
0.0000000000000000e+00 2.5000000000000000e+01
0.0000000000000000e+00 2.5000000000000000e+01
0.0000000000000000e+00 2.5000000000000000e+01
ITEM: ATOMS id type xs ys zs
89 2 0.804413 0.232445 0.187239
90 4 0.776395 0.228744 0.241057
104 1 0.776359 0.230815 0.150474
105 1 0.828375 0.195648 0.180004
96 3 0.909763 0.2061 0.166167
97 3 0.930917 0.291065 0.150079
92 4 0.900052 0.256424 0.174076
88 4 0.842368 0.277978 0.180258
87 2 0.839537 0.325883 0.215958
102 1 0.821553 0.358463 0.190987
103 1 0.878641 0.348825 0.219839
98 3 0.825634 0.144585 0.254037
93 4 0.797455 0.182715 0.275253
99 3 0.771328 0.172377 0.318662
101 1 0.734239 0.29664 0.261072
9 4 0.639648 0.412051 0.371206
14 3 0.591459 0.393148 0.374191
15 3 0.675175 0.393483 0.339157
21 1 0.658066 0.404746 0.463327
5 2 0.665166 0.449507 0.45944
20 1 0.70742 0.451193 0.472356
6 4 0.656852 0.462017 0.400969
16 1 0.588784 0.48722 0.361771
19 1 0.551609 0.487405 0.481075
100 1 0.762088 0.270337 0.318844
86 4 0.81276 0.322074 0.269114
85 2 0.773117 0.277418 0.274897
91 4 0.857175 0.317506 0.31107
94 3 0.843901 0.322545 0.361777
95 3 0.905454 0.303483 0.299437
10 3 0.49902 0.529246 0.415428
1 2 0.620584 0.507885 0.386516
2 4 0.595608 0.540749 0.429419
3 2 0.587622 0.510611 0.480962
7 4 0.540755 0.559299 0.408416
17 1 0.64636 0.535981 0.362921
11 3 0.542122 0.602198 0.379553
57 3 0.0646544 0.49187 0.563592
47 2 0.122075 0.478767 0.687985
48 4 0.129723 0.463092 0.629229
59 1 0.195595 0.421686 0.591041
62 1 0.0795871 0.485675 0.69833
46 4 0.149322 0.443715 0.72767
43 2 0.188278 0.455551 0.61812
44 4 0.227422 0.453531 0.663419
45 2 0.206236 0.430728 0.714248
60 1 0.210171 0.386088 0.714748
58 1 0.202745 0.484078 0.587637
61 1 0.230689 0.446577 0.747899
74 3 0.341576 0.457382 0.68268
70 4 0.358004 0.438538 0.728786
65 4 0.417641 0.420476 0.731172
81 1 0.47797 0.47506 0.715902
64 2 0.42795 0.363442 0.745718
79 1 0.393925 0.33559 0.74093
80 1 0.457697 0.343276 0.719075
13 3 0.660329 0.4088 0.564297
4 4 0.633196 0.47774 0.501494
8 4 0.621453 0.438128 0.546261
12 3 0.573118 0.435021 0.563815
51 4 0.105181 0.504061 0.592636
63 1 0.137567 0.52047 0.693369
56 3 0.116867 0.554664 0.598726
49 4 0.248974 0.510665 0.670506
53 3 0.228394 0.536399 0.710055
52 3 0.289345 0.527329 0.64267
18 1 0.57735 0.540307 0.513198
31 3 0.151501 0.0818273 0.991175
22 2 0.167929 0.0316755 0.859168
23 4 0.195111 0.0560986 0.907136
28 4 0.162934 0.0439514 0.95768
37 1 0.130359 0.0106933 0.868772
38 1 0.157326 0.0653784 0.835417
24 2 0.252879 0.0424587 0.913306
39 1 0.274031 0.0761074 0.930848
40 1 0.251473 0.0113642 0.946219
25 4 0.283755 0.020769 0.868491
26 2 0.253565 0.00367639 0.818307
41 1 0.265322 0.0289946 0.781033
50 4 0.143635 0.470907 0.782273
54 3 0.135521 0.439073 0.821807
73 3 0.332783 0.457725 0.769641
66 2 0.453543 0.46313 0.751341
69 4 0.45619 0.351404 0.797268
72 4 0.414559 0.347591 0.842434
77 3 0.404737 0.392572 0.867475
78 3 0.407141 0.304489 0.870508
68 2 0.496317 0.39262 0.81155
67 4 0.490162 0.450204 0.797545
84 1 0.512457 0.377476 0.852338
71 4 0.541276 0.483412 0.792322
83 1 0.528825 0.380468 0.781902
75 3 0.585459 0.460924 0.809488
55 3 0.150988 0.522419 0.787161
82 1 0.437212 0.505149 0.760382
76 3 0.539548 0.52645 0.763986
32 3 0.150356 0.995933 0.973128
27 4 0.194536 0.992937 0.822739
30 4 0.185449 0.934554 0.836362
35 3 0.15029 0.919624 0.871277
36 3 0.205619 0.89907 0.803854
33 3 0.36429 0.970244 0.873522
42 1 0.270971 0.968729 0.801074
29 4 0.314326 0.971053 0.886859
34 3 0.294141 0.937948 0.922039
ITEM: TIMESTEP
4500
ITEM: NUMBER OF ATOMS
105
ITEM: BOX BOUNDS pp pp pp
0.0000000000000000e+00 2.5000000000000000e+01
0.0000000000000000e+00 2.5000000000000000e+01
0.0000000000000000e+00 2.5000000000000000e+01
ITEM: ATOMS id type xs ys zs
89 2 0.79389 0.248463 0.195822
90 4 0.763791 0.242754 0.247271
104 1 0.760923 0.261508 0.167096
105 1 0.81183 0.212271 0.178694
96 3 0.91104 0.247791 0.218398
97 3 0.907919 0.265429 0.130948
92 4 0.890812 0.274802 0.178948
88 4 0.831763 0.292448 0.183285
87 2 0.827604 0.340864 0.219183
102 1 0.801891 0.369816 0.199302
103 1 0.867501 0.360066 0.222737
98 3 0.800729 0.151784 0.247498
93 4 0.785199 0.192726 0.275607
99 3 0.782091 0.190271 0.327586
101 1 0.730007 0.311796 0.290367
9 4 0.646792 0.397649 0.371926
14 3 0.597948 0.388906 0.359569
15 3 0.6854 0.373446 0.347111
21 1 0.61927 0.390254 0.469224
5 2 0.650357 0.422383 0.468766
20 1 0.683948 0.398049 0.483762
6 4 0.660877 0.441757 0.41304
16 1 0.615078 0.480851 0.356594
19 1 0.552416 0.479924 0.480847
100 1 0.775261 0.274516 0.326716
86 4 0.810428 0.331379 0.275939
85 2 0.768282 0.288788 0.285246
91 4 0.856349 0.317188 0.312768
94 3 0.84308 0.303223 0.361505
95 3 0.904998 0.319428 0.294729
10 3 0.524023 0.5069 0.385274
1 2 0.637354 0.492663 0.392246
2 4 0.607128 0.52671 0.432659
3 2 0.590369 0.501419 0.484135
7 4 0.554921 0.54278 0.407016
17 1 0.67223 0.516797 0.381431
11 3 0.542605 0.593396 0.409938
57 3 0.0888019 0.517435 0.567483
47 2 0.117471 0.452608 0.684378
48 4 0.133366 0.456996 0.626895
59 1 0.198161 0.408053 0.617587
62 1 0.09258 0.415902 0.688211
46 4 0.159465 0.44318 0.725368
43 2 0.192655 0.451619 0.614822
44 4 0.231204 0.474435 0.655116
45 2 0.21379 0.46306 0.711771
60 1 0.2397 0.429577 0.726024
58 1 0.203726 0.463493 0.573944
61 1 0.229559 0.496413 0.737488
74 3 0.312791 0.41742 0.708887
70 4 0.350913 0.430313 0.740982
65 4 0.411573 0.425281 0.730475
81 1 0.46003 0.496584 0.725763
64 2 0.436403 0.370849 0.730382
79 1 0.407473 0.34769 0.707984
80 1 0.472983 0.372483 0.703977
13 3 0.61917 0.45466 0.604256
4 4 0.629408 0.462218 0.507799
8 4 0.606364 0.435392 0.557383
12 3 0.572583 0.396618 0.552953
51 4 0.116356 0.512496 0.610525
63 1 0.0833174 0.479616 0.69657
56 3 0.124439 0.551671 0.644295
49 4 0.239206 0.533979 0.645745
53 3 0.23011 0.566988 0.685428
52 3 0.268375 0.548578 0.605557
18 1 0.577381 0.533282 0.51415
31 3 0.178461 0.0911501 0.992015
22 2 0.169125 0.0175832 0.866106
23 4 0.198042 0.0537551 0.904864
28 4 0.172904 0.0497816 0.960138
37 1 0.150445 0.984013 0.890103
38 1 0.139324 0.0395616 0.845612
24 2 0.258079 0.0528591 0.908604
39 1 0.268323 0.095724 0.908843
40 1 0.27073 0.0385933 0.949203
25 4 0.288374 0.0228439 0.866666
26 2 0.254887 0.00952777 0.817435
41 1 0.255659 0.0486836 0.791442
50 4 0.143834 0.46343 0.781491
54 3 0.111129 0.434126 0.809664
73 3 0.342099 0.451999 0.786807
66 2 0.446751 0.467001 0.755613
69 4 0.460137 0.353742 0.784155
72 4 0.421666 0.345926 0.830235
77 3 0.415515 0.386929 0.861639
78 3 0.40302 0.298894 0.842251
68 2 0.495798 0.394491 0.808384
67 4 0.490196 0.4523 0.796746
84 1 0.498672 0.390986 0.85325
71 4 0.544368 0.475562 0.783921
83 1 0.537686 0.38388 0.796943
75 3 0.578778 0.451982 0.753233
55 3 0.156869 0.511327 0.794156
82 1 0.417143 0.496088 0.778392
76 3 0.554638 0.522681 0.80394
32 3 0.14262 0.0103635 0.974372
27 4 0.199562 0.990181 0.821539
30 4 0.199763 0.929289 0.82495
35 3 0.166666 0.90257 0.854083
36 3 0.221785 0.906684 0.783445
33 3 0.357045 0.957033 0.864964
42 1 0.280587 0.982955 0.793913
29 4 0.311173 0.970354 0.885654
34 3 0.284945 0.942088 0.920157
ITEM: TIMESTEP
5000
ITEM: NUMBER OF ATOMS
105
ITEM: BOX BOUNDS pp pp pp
0.0000000000000000e+00 2.5000000000000000e+01
0.0000000000000000e+00 2.5000000000000000e+01
0.0000000000000000e+00 2.5000000000000000e+01
ITEM: ATOMS id type xs ys zs
105 1 0.783444 0.232121 0.180215
97 3 0.870162 0.232953 0.144359
98 3 0.774197 0.163823 0.23919
104 1 0.741693 0.289121 0.180302
89 2 0.775394 0.270309 0.201181
96 3 0.909688 0.270107 0.215987
92 4 0.870499 0.268378 0.182005
88 4 0.822093 0.305891 0.191173
87 2 0.832677 0.347937 0.233571
102 1 0.813025 0.382668 0.213813
103 1 0.875855 0.352452 0.237195
93 4 0.779079 0.202155 0.272859
99 3 0.79798 0.194769 0.320512
101 1 0.725143 0.326605 0.28665
9 4 0.655836 0.38434 0.381648
14 3 0.606391 0.38188 0.365815
15 3 0.693979 0.358767 0.357305
21 1 0.615499 0.379615 0.469435
5 2 0.64729 0.40929 0.476363
6 4 0.67203 0.425203 0.423513
16 1 0.644143 0.47888 0.364507
10 3 0.55799 0.486247 0.375574
1 2 0.658694 0.480672 0.406055
17 1 0.698139 0.499281 0.406583
90 4 0.75607 0.258024 0.256866
100 1 0.754241 0.286383 0.33558
86 4 0.806708 0.342679 0.287473
85 2 0.761854 0.30235 0.294378
91 4 0.851144 0.335243 0.327424
94 3 0.851869 0.295153 0.359875
95 3 0.889629 0.370548 0.323917
2 4 0.623853 0.517643 0.438934
3 2 0.615595 0.507084 0.496453
7 4 0.567897 0.520021 0.41373
11 3 0.532278 0.55269 0.431861
47 2 0.135141 0.432896 0.67542
48 4 0.140948 0.458343 0.620712
59 1 0.218048 0.450635 0.585612
62 1 0.150402 0.39127 0.673365
46 4 0.164612 0.457854 0.7217
43 2 0.196177 0.479591 0.609822
44 4 0.229821 0.498508 0.655032
63 1 0.0941337 0.419796 0.685416
74 3 0.325904 0.385309 0.73082
70 4 0.356065 0.426103 0.742435
65 4 0.416551 0.430351 0.730315
64 2 0.439434 0.375662 0.738098
79 1 0.412545 0.343725 0.723997
80 1 0.475049 0.375248 0.709608
20 1 0.669356 0.381642 0.502978
13 3 0.544007 0.464183 0.563768
4 4 0.624426 0.449412 0.514113
8 4 0.579541 0.428792 0.549611
12 3 0.574524 0.377832 0.56176
75 3 0.537285 0.488212 0.720036
57 3 0.0849349 0.526149 0.573846
45 2 0.203758 0.500962 0.709464
60 1 0.234621 0.508874 0.741923
58 1 0.188488 0.516058 0.585871
61 1 0.182794 0.541061 0.717301
51 4 0.101023 0.504607 0.618775
56 3 0.0884241 0.523651 0.665097
52 3 0.247201 0.579571 0.604143
81 1 0.452321 0.512736 0.744926
49 4 0.259719 0.551296 0.645385
53 3 0.299597 0.567548 0.674985
19 1 0.574504 0.519308 0.508971
18 1 0.642823 0.532433 0.521617
31 3 0.210527 0.0831612 0.990926
23 4 0.199801 0.0460306 0.900923
28 4 0.184631 0.0505159 0.959597
32 3 0.141398 0.026881 0.975459
24 2 0.258709 0.0616447 0.893401
39 1 0.261814 0.104169 0.880663
40 1 0.277924 0.0662568 0.934035
25 4 0.292822 0.0274556 0.859405
26 2 0.262278 0.00213693 0.813192
41 1 0.258014 0.0379148 0.782837
50 4 0.134729 0.468678 0.774616
54 3 0.0910608 0.441602 0.784434
73 3 0.334123 0.468008 0.761829
66 2 0.445031 0.472672 0.763072
69 4 0.469933 0.356396 0.784691
72 4 0.433153 0.324659 0.82167
77 3 0.415097 0.346696 0.864614
78 3 0.411833 0.278038 0.810563
68 2 0.497077 0.401383 0.815345
67 4 0.489964 0.458036 0.799108
84 1 0.495626 0.399013 0.860288
82 1 0.413436 0.486718 0.795506
71 4 0.541179 0.47829 0.77104
83 1 0.539969 0.38782 0.810477
76 3 0.584214 0.479175 0.798409
55 3 0.147539 0.506943 0.806855
22 2 0.180579 0.995636 0.875858
37 1 0.188582 0.958199 0.901107
38 1 0.137883 0.998132 0.874126
27 4 0.204536 0.988541 0.820863
30 4 0.199162 0.929625 0.805399
35 3 0.167204 0.898221 0.831927
36 3 0.22614 0.911656 0.764987
33 3 0.357755 0.956527 0.873952
42 1 0.28746 0.977613 0.786138
29 4 0.314402 0.979496 0.891355
34 3 0.28264 0.957711 0.925711
